{
  "default": {
    "url": "http://<ip>:<port>/<user>/",
    "username": "<user>",
    "password": "<password>"
  },
  "dev": {
    "url": "http://<ip>:<port>/<user>/",
    "username": "<user>",
    "password": "<password>"
  },
  "prod": {
    "url": "http://<ip>:<port>/<user>/",
    "username": "<user>",
    "password": "<password>"
  },
  "google": {
    "url": "http://<ip>:<port>/<user>",
    "username": "<user>",
    "password": "<password>"
  }
}
